{   
    "Version": "2012-10-17",
    "Statement": [     
        {       
            "Action": "sts:AssumeRole",       
            "Principal": {         
                "Service": "ec2.amazonaws.com"       
            },       
            "Effect": "Allow"     
        }   
    ] 
}